…
First, the AFINN dictionary [(Nielsen
2011)](https://arxiv.org/abs/1103.2903) ranks words on a scale of -5 to
+5. Words negatively ranked are those with a negative associated
sentiment and those with a positive rank are associated with a positive
sentiment. While the number represents the magnitude of sentiment (e.g.,
+5 is more positive than +3).

``` r
tidytext::get_sentiments("afinn")
#> # A tibble: 2,477 × 2
#>    word       value
#>    <chr>      <dbl>
#>  1 abandon       -2
#>  2 abandoned     -2
#>  3 abandons      -2
#>  4 abducted      -2
#>  5 abduction     -2
#>  6 abductions    -2
#>  7 abhor         -3
#>  8 abhorred      -3
#>  9 abhorrent     -3
#> 10 abhors        -3
#> # … with 2,467 more rows
```

Second, the bing dictionary [Liu et
al. ](https://www.morganclaypool.com/doi/abs/10.2200/s00416ed1v01y201204hlt016?casa_token=zVb-dykzCngAAAAA:joawB4fnvH6TWALFJeKJS8HiQQ07g920cdnjogMvSesova-GyXExeT7wwFkW2C6XjppwyThDHA)
ranks word in a binary fashion of either positive of negative.

``` r
tidytext::get_sentiments("bing")
#> # A tibble: 6,786 × 2
#>    word        sentiment
#>    <chr>       <chr>    
#>  1 2-faces     negative 
#>  2 abnormal    negative 
#>  3 abolish     negative 
#>  4 abominable  negative 
#>  5 abominably  negative 
#>  6 abominate   negative 
#>  7 abomination negative 
#>  8 abort       negative 
#>  9 aborted     negative 
#> 10 aborts      negative 
#> # … with 6,776 more rows
```

Third, the nrc dictionary [Mohammad and Turney
2010,](https://arxiv.org/pdf/1308.6297.pdf) categories word into
different emotions: positive, negative, anger, anticipation, disgust,
fear, joy, sadness, surprise, and trust.

``` r
tidytext::get_sentiments("nrc")
#> # A tibble: 13,872 × 2
#>    word        sentiment
#>    <chr>       <chr>    
#>  1 abacus      trust    
#>  2 abandon     fear     
#>  3 abandon     negative 
#>  4 abandon     sadness  
#>  5 abandoned   anger    
#>  6 abandoned   fear     
#>  7 abandoned   negative 
#>  8 abandoned   sadness  
#>  9 abandonment anger    
#> 10 abandonment fear     
#> # … with 13,862 more rows
```
…
